{
	"update_image": "https://image.shutterstock.com/image-vector/update-260nw-338016263.jpg",
	"update_title": "New Update Available...!!!",
	"changelog": "South TV changelog\n\n ◘ Fixed some Bugs\n",
	"update_Link": "https://play.google.com/store/apps/details?id=com.thop.tamil",
	"latestAppVersion": 62,
	"download_title": "PlayStores",
	"forceUpdateApp": true
}
